{
  "schema_version": "0.1.3",
  "record_metadata": {
    "uuid": "eb8e91fe-952e-48b7-af0d-c026ebe37826",
    "record_created": "2022-02-28",
    "record_created_by": "Kudela, Xenia Monika",
    "record_modified": [
      {
        "record_modified_on": "2022-03-29",
        "record_modified_by": "Kudela, Xenia Monika"
      }
    ]
  },
  "project": {
    "title": "Methoden der Bildverarbeitung zur Bestimmung von visuellen Manuskript- und Zeichenmerkmalen",
    "abbr": "",
    "type": "project",
    "ref": [],
    "date": [
      {
        "from": "2015",
        "to": "2019"
      }
    ],
    "websites": [
      "https://www.manuscript-cultures.uni-hamburg.de/Poster/Z03_A4_P2.pdf",
      "https://www.manuscript-cultures.uni-hamburg.de/Projekte_p2.html"
    ],
    "project_desc": "This project is intended to support the research programme of the SFB (Sonderforschungsbereich for Manuscript Cultures in Asia, Africa and Europe) by piloting and further development of the Advanced Manuscript Analysis Portal  (AMAP), a web-based platform offering self-usable toolbox for humanists and facilitating communication between experts, as well as by development of innovative image processing methods.",
    "places": [
      {
        "place_name": {
          "text": "Hamburg",
          "ref": [
            "https://www.geonames.org/2911298/hamburg.html"
          ]
        },
        "coordinates": {
          "lat": "53.55073",
          "lng": "9.99302"
        }
      }
    ],
    "lang": [
      "eng",
      "ger"
    ],
    "topic_relations": {
      "nls": false,
      "dh": true,
      "meta": false,
      "rdm": false,
      "infrastructure": true
    },
    "parents": [
      {
        "type": "organisation",
        "org_name": {
          "text": "Centre for the Study of Manuscript Cultures",
          "ref": []
        },
        "websites": [
          "https://www.csmc.uni-hamburg.de/"
        ],
        "places": [
          {
            "place_name": {
              "text": "Hamburg",
              "ref": [
                "https://www.geonames.org/2911298/hamburg.html"
              ]
            }
          }
        ],
        "parents": [
          {
            "type": "organisation",
            "org_name": {
              "text": "Universität Hamburg",
              "ref": [
                "https://www.grid.ac/institutes/grid.9026.d"
              ]
            },
            "website": [
              "http://www.uni-hamburg.de/"
            ],
            "places": [
              {
                "place_name": {
                  "text": "Hamburg",
                  "ref": [
                    "https://www.geonames.org/2911298/hamburg.html"
                  ]
                }
              }
            ]
          }
        ],
        "siblings": [],
        "children": []
      }
    ],
    "children": [],
    "siblings": [
      {
        "type": "project",
        "title": "Methoden der Manuskriptanalyse zur Wiedergewinnung verlorener Schrift",
        "uuid": "892b783d-1788-451f-9efd-1c58bfb4b064"
      },
      {
        "type": "project",
        "title": "Datenrepositorium Manuskriptkulturen",
        "uuid": "894dcf0c-7295-4fb8-b4ba-866a5ebe3310"
      }
    ],
    "contacts": [
      {
        "pers_name": {
          "text": "Stiehl, Hans Siegfried",
          "ref": [
            "https://www.wikidata.org/wiki/Q102416616"
          ]
        },
        "role": 0,
        "websites": [
          "https://www.csmc.uni-hamburg.de/about/people/stiehl.html",
          "https://www.inf.uni-hamburg.de/en/inst/ab/bv/team/stiehl.html"
        ]
      }
    ],
    "research_data": {
      "lang": []
    },
    "stack": {},
    "policies": [],
    "keywords": [
      "image_processing",
      "ip",
      "manuscript_research",
      "manuscripts",
      "research_software"
    ],
    "comment": ""
  }
}