{
  "schema_version": "0.1.3",
  "record_metadata": {
    "uuid": "894f2c88-1713-480d-99cd-32d30f3c0ac2",
    "record_created": "2022-05-24",
    "record_created_by": "Kudela, Xenia Monika",
    "record_modified": [
      {
        "record_modified_on": "",
        "record_modified_by": ""
      }
    ]
  },
  "project": {
    "title": "Computational Literary Studies Infrastructure (CLS INFRA)",
    "abbr": "CLS INFRA",
    "type": "project",
    "ref": [],
    "date": [
      {
        "from": "2021-03-01",
        "to": "2025-02-28"
      }
    ],
    "websites": [
      "https://clsinfra.io/"
    ],
    "project_desc": "This project is a partnership of various European research institutions to build a shared resource of high-quality data, tools and knowledge to aid new approaches to studying literature in the digital age. It aims to create an infrastructure which will align the diverse resources of Europe’s multilingual and interconnected literary heritage with each other, with the tools needed to interrogate them, and with a widened base of users.",
    "places": [
      {
        "place_name": {
          "text": "Krakow",
          "ref": [
            "https://www.geonames.org/3094802/krakow.html"
          ]
        },
        "coordinates": {
          "lat": "50.06143",
          "lng": "19.93658"
        }
      },
      {
        "place_name": {
          "text": "Potsdam",
          "ref": [
            "http://www.geonames.org/2852458/potsdam.html"
          ]
        },
        "coordinates": {
          "lat": "52.39886",
          "lng": "13.06566"
        }
      },
      {
        "place_name": {
          "text": "Vienna",
          "ref": [
            "https://www.geonames.org/2761369/vienna.html"
          ]
        },
        "coordinates": {
          "lat": "48.20849",
          "lng": "16.37208"
        }
      },
      {
        "place_name": {
          "text": "Madrid",
          "ref": [
            "https://www.geonames.org/3117735/madrid.html"
          ]
        },
        "coordinates": {
          "lat": "40.4165",
          "lng": "-3.70256"
        }
      },
      {
        "place_name": {
          "text": "Lyon",
          "ref": [
            "https://www.geonames.org/2996944/lyon.html"
          ]
        },
        "coordinates": {
          "lat": "45.74846",
          "lng": "4.84671"
        }
      },
      {
        "place_name": {
          "text": "Berlin",
          "ref": [
            "https://www.geonames.org/2950159/berlin.html"
          ]
        },
        "coordinates": {
          "lat": "52.52437",
          "lng": "13.41053"
        }
      },
      {
        "place_name": {
          "text": "Prague",
          "ref": [
            "https://www.geonames.org/3067696/prague.html"
          ]
        },
        "coordinates": {
          "lat": "50.08804",
          "lng": "14.42076"
        }
      },
      {
        "place_name": {
          "text": "Paris",
          "ref": [
            "http://www.geonames.org/2988506/paris.html"
          ]
        },
        "coordinates": {
          "lat": "48.85339",
          "lng": "2.34864"
        }
      },
      {
        "place_name": {
          "text": "Gent",
          "ref": [
            "https://www.geonames.org/2797656/gent.html"
          ]
        },
        "coordinates": {
          "lat": "51.05",
          "lng": "3.71667"
        }
      },
      {
        "place_name": {
          "text": "Belgrade",
          "ref": [
            "https://www.geonames.org/792680/belgrade.html"
          ]
        },
        "coordinates": {
          "lat": "44.80401",
          "lng": "20.46513"
        }
      },
      {
        "place_name": {
          "text": "Amsterdam",
          "ref": [
            "https://www.geonames.org/2759794/amsterdam.html"
          ]
        },
        "coordinates": {
          "lat": "52.37403",
          "lng": "4.88969"
        }
      },
      {
        "place_name": {
          "text": "Trier",
          "ref": [
            "https://www.geonames.org/2821164/trier.html"
          ]
        },
        "coordinates": {
          "lat": "49.75565",
          "lng": "6.63935"
        }
      },
      {
        "place_name": {
          "text": "Gaillimh",
          "ref": [
            "https://www.geonames.org/2964180/gaillimh.html"
          ]
        },
        "coordinates": {
          "lat": "53.27245",
          "lng": "-9.05095"
        }
      }
    ],
    "lang": [
      "eng"
    ],
    "topic_relations": {
      "nls": false,
      "dh": false,
      "meta": false,
      "rdm": true,
      "infrastructure": true
    },
    "parents": [
      {
        "type": "organisation",
        "org_name": {
          "text": "The Institute of the Polish Language of the Polish Academy of Sciences",
          "ref": [
            "https://www.grid.ac/institutes/grid.460376.0"
          ]
        },
        "websites": [
          "https://ijp.pan.pl/"
        ],
        "places": [
          {
            "place_name": {
              "text": "Krakow",
              "ref": [
                "https://www.geonames.org/3094802/krakow.html"
              ]
            }
          }
        ],
        "parents": [],
        "siblings": [],
        "children": []
      },
      {
        "type": "organisation",
        "org_name": {
          "text": "University of Potsdam",
          "ref": [
            "https://www.grid.ac/institutes/grid.11348.3f"
          ]
        },
        "websites": [
          "https://www.uni-potsdam.de/en/"
        ],
        "places": [
          {
            "place_name": {
              "text": "Potsdam",
              "ref": [
                "http://www.geonames.org/2852458/potsdam.html"
              ]
            }
          }
        ],
        "parents": [],
        "siblings": [],
        "children": []
      },
      {
        "type": "organisation",
        "org_name": {
          "text": "Österreichische Akademie der Wissenschaften",
          "ref": [
            "https://www.grid.ac/institutes/grid.4299.6"
          ]
        },
        "websites": [
          "http://www.oeaw.ac.at/en/austrian-academy-of-sciences/"
        ],
        "places": [
          {
            "place_name": {
              "text": "Vienna",
              "ref": [
                "https://www.geonames.org/2761369/vienna.html"
              ]
            }
          }
        ],
        "parents": [],
        "siblings": [],
        "children": []
      },
      {
        "type": "organisation",
        "org_name": {
          "text": "National University of Distance Education",
          "ref": [
            "https://www.grid.ac/institutes/grid.10702.34"
          ]
        },
        "websites": [
          "https://www.uned.es/universidad/inicio.html"
        ],
        "places": [
          {
            "place_name": {
              "text": "Madrid",
              "ref": [
                "https://www.geonames.org/3117735/madrid.html"
              ]
            }
          }
        ],
        "parents": [],
        "siblings": [],
        "children": []
      },
      {
        "type": "organisation",
        "org_name": {
          "text": "École Normale Supérieure de Lyon",
          "ref": [
            "https://www.grid.ac/institutes/grid.15140.31"
          ]
        },
        "websites": [
          "http://www.ens-lyon.fr/"
        ],
        "places": [
          {
            "place_name": {
              "text": "Lyon",
              "ref": [
                "https://www.geonames.org/2996944/lyon.html"
              ]
            }
          }
        ],
        "parents": [],
        "siblings": [],
        "children": []
      },
      {
        "type": "organisation",
        "org_name": {
          "text": "Humboldt-Universität zu Berlin",
          "ref": [
            "https://www.grid.ac/institutes/grid.7468.d"
          ]
        },
        "websites": [
          "https://www.hu-berlin.de/?set_language=en&cl=en"
        ],
        "places": [
          {
            "place_name": {
              "text": "Berlin",
              "ref": [
                "https://www.geonames.org/2950159/berlin.html"
              ]
            }
          }
        ],
        "parents": [],
        "siblings": [],
        "children": []
      },
      {
        "type": "organisation",
        "org_name": {
          "text": "Charles University",
          "ref": [
            "https://www.grid.ac/institutes/grid.4491.8"
          ]
        },
        "websites": [
          "https://cuni.cz/UKEN-1.html"
        ],
        "places": [
          {
            "place_name": {
              "text": "Prague",
              "ref": [
                "https://www.geonames.org/3067696/prague.html"
              ]
            }
          }
        ],
        "parents": [],
        "siblings": [],
        "children": []
      },
      {
        "type": "organisation",
        "org_name": {
          "text": "Digital Research Infrastructure for the Arts and Humanities (DARIAH)",
          "ref": [
            "https://www.wikidata.org/wiki/Q49103279"
          ]
        },
        "uuid": "1ae31b2f-5c67-49a7-9fba-c162b314bbcb"
      },
      {
        "type": "organisation",
        "org_name": {
          "text": "Ghent University",
          "ref": [
            "https://www.grid.ac/institutes/grid.5342.0"
          ]
        },
        "websites": [
          "https://www.ugent.be/en"
        ],
        "places": [
          {
            "place_name": {
              "text": "Gent",
              "ref": [
                "https://www.geonames.org/2797656/gent.html"
              ]
            }
          }
        ],
        "parents": [],
        "siblings": [],
        "children": []
      },
      {
        "type": "organisation",
        "org_name": {
          "text": "Belgrade Centre for Digital Humanities",
          "ref": []
        },
        "websites": [
          "http://www.humanistika.org/",
          "https://wbc-rti.info/object/link/6612",
          "https://elex.is/rs-bcdh/"
        ],
        "places": [
          {
            "place_name": {
              "text": "Belgrade",
              "ref": [
                "https://www.geonames.org/792680/belgrade.html"
              ]
            }
          }
        ],
        "parents": [],
        "siblings": [],
        "children": []
      },
      {
        "type": "organisation",
        "org_name": {
          "text": "Royal Netherlands Academy of Arts and Sciences",
          "ref": [
            "https://www.grid.ac/institutes/grid.418101.d"
          ]
        },
        "websites": [
          "http://www.knaw.nl/nl"
        ],
        "places": [
          {
            "place_name": {
              "text": "Amsterdam",
              "ref": [
                "https://www.geonames.org/2759794/amsterdam.html"
              ]
            }
          }
        ],
        "parents": [],
        "siblings": [],
        "children": []
      },
      {
        "type": "organisation",
        "org_name": {
          "text": "University of Trier",
          "ref": [
            "https://www.grid.ac/institutes/grid.12391.38"
          ]
        },
        "websites": [
          "https://www.uni-trier.de/"
        ],
        "places": [
          {
            "place_name": {
              "text": "Trier",
              "ref": [
                "https://www.geonames.org/2821164/trier.html"
              ]
            }
          }
        ],
        "parents": [],
        "siblings": [],
        "children": []
      },
      {
        "type": "organisation",
        "org_name": {
          "text": "National University of Ireland, Galway",
          "ref": [
            "https://www.grid.ac/institutes/grid.6142.1"
          ]
        },
        "websites": [
          "http://www.nuigalway.ie/"
        ],
        "places": [
          {
            "place_name": {
              "text": "Gaillimh",
              "ref": [
                "https://www.geonames.org/2964180/gaillimh.html"
              ]
            }
          }
        ],
        "parents": [],
        "siblings": [],
        "children": []
      }
    ],
    "children": [],
    "siblings": [
      {
        "type": "project",
        "title": "DARIAH Reference Curriculum",
        "uuid": "502131b8-2103-465d-b49c-eaa0ca7d976b"
      }
    ],
    "contacts": [
      {
        "pers_name": {
          "text": "Eder, Maciej",
          "ref": [
            "https://www.wikidata.org/wiki/Q24649708#sitelinks-wikipedia"
          ]
        },
        "role": 0,
        "websites": [
          "http://maciejeder.org/",
          "https://ijp.pan.pl/en/pracownicy/maciej-eder/"
        ]
      }
    ],
    "research_data": {
      "lang": [],
      "publications": {
        "access": {
          "open": 0.0,
          "closed": 100.0,
          "margin": 0.0
        },
        "licensing": [
          ""
        ]
      },
      "data": {
        "raw": {
          "datatypes": [
            {
              "label": "",
              "licensing": [
                ""
              ],
              "access": {
                "open": 0.0,
                "closed": 100.0,
                "margin": 0.0
              }
            }
          ],
          "repositories": [
            {
              "type": "local",
              "accessibility": "restricted",
              "label": "folder-based data storage"
            },
            {
              "type": "remote",
              "accessibility": "open",
              "ref": "",
              "label": "github"
            }
          ]
        },
        "refined": {},
        "final": {}
      }
    },
    "stack": {
      "database": [
        "sql",
        "xml",
        "json",
        "nosql"
      ],
      "backend": [
        "laravel"
      ],
      "frontend": [
        "vue"
      ],
      "tools": [
        {
          "label": "mallet",
          "self_developed": false,
          "ref": "https://...",
          "purpose": "Zeit schinden"
        }
      ],
      "languages": [
        "php",
        "javascript",
        "python"
      ]
    },
    "policies": [
      {
        "type": "",
        "uri": ""
      }
    ],
    "keywords": [
      "",
      "digital_literary_studies",
      "research_data_management",
      "research_infrastructure"
    ],
    "comment": ""
  }
}