{
  "schema_version": "0.1.3",
  "record_metadata": {
    "uuid": "9ca46873-3089-4a04-99fa-89c0c1b01213",
    "record_created": "2021-11-01",
    "record_created_by": "Kudela, Xenia Monika",
    "record_modified": [
      {
        "record_modified_on": "2022-01-26",
        "record_modified_by": "Kudela, Xenia Monika"
      },
      {
        "record_modified_on": "2022-02-14",
        "record_modified_by": "Kudela, Xenia Monika"
      },
      {
        "record_modified_on": "2022-05-06",
        "record_modified_by": "Kudela, Xenia Monika"
      }
    ]
  },
  "project": {
    "title": "Understanding Written Artefacts",
    "abbr": "",
    "type": "project",
    "ref": [],
    "date": [
      {
        "from": "2019",
        "to": "2025"
      }
    ],
    "websites": [
      "https://www.csmc.uni-hamburg.de/written-artefacts/"
    ],
    "project_desc": "Understanding Written Artefacts is a Cluster of Excellence comprising over 50 research projects from 40 academic disciplines with an overall aim to develop a global framework for the study of all written artefacts from the beginning of writing to the present day and from all regions that have produced such artefacts. It combines approaches from the humanities and the natural sciences and its research focuses on different dimensions of written artefacts, such as their materiality, spatiality, content, and format.",
    "places": [
      {
        "place_name": {
          "text": "Hamburg",
          "ref": [
            "https://www.geonames.org/2911298/hamburg.html"
          ]
        },
        "coordinates": {
          "lat": "53.55073",
          "lng": "9.99302"
        }
      },
      {
        "place_name": {
          "text": "Lübeck",
          "ref": [
            "https://www.geonames.org/2875601/luebeck.html"
          ]
        },
        "coordinates": {
          "lat": "53.86893",
          "lng": "10.68729"
        }
      }
    ],
    "lang": [
      "eng"
    ],
    "topic_relations": {
      "nls": true,
      "dh": true,
      "meta": false,
      "rdm": false,
      "infrastructure": false
    },
    "parents": [
      {
        "type": "organisation",
        "org_name": {
          "text": "Centre for the Study of Manuscript Cultures",
          "ref": []
        },
        "websites": [
          "https://www.csmc.uni-hamburg.de/"
        ],
        "places": [
          {
            "place_name": {
              "text": "Hamburg",
              "ref": [
                "https://www.geonames.org/2911298/hamburg.html"
              ]
            }
          }
        ],
        "parents": [
          {
            "type": "organisation",
            "org_name": {
              "text": "Universität Hamburg",
              "ref": [
                "https://www.grid.ac/institutes/grid.9026.d"
              ]
            },
            "website": [
              "http://www.uni-hamburg.de/"
            ],
            "places": [
              {
                "place_name": {
                  "text": "Hamburg",
                  "ref": [
                    "https://www.geonames.org/2911298/hamburg.html"
                  ]
                }
              }
            ]
          }
        ],
        "siblings": [],
        "children": []
      },
      {
        "type": "organisation",
        "org_name": {
          "text": "Helmut-Schmidt-Universität",
          "ref": [
            "https://www.grid.ac/institutes/grid.49096.32"
          ]
        },
        "websites": [
          "https://www.hsu-hh.de/"
        ],
        "places": [
          {
            "place_name": {
              "text": "Hamburg",
              "ref": [
                "https://www.geonames.org/2911298/hamburg.html"
              ]
            }
          }
        ],
        "parents": [],
        "siblings": [],
        "children": []
      },
      {
        "type": "organisation",
        "org_name": {
          "text": "Technische Universität Hamburg",
          "ref": [
            "https://www.grid.ac/institutes/grid.6884.2"
          ]
        },
        "websites": [
          "http://www.tuhh.de"
        ],
        "places": [
          {
            "place_name": {
              "text": "Hamburg",
              "ref": [
                "https://www.geonames.org/2911298/hamburg.html"
              ]
            }
          }
        ],
        "parents": [],
        "siblings": [],
        "children": []
      },
      {
        "type": "organisation",
        "org_name": {
          "text": "Universität zu Lübeck",
          "ref": [
            "https://www.grid.ac/institutes/grid.4562.5"
          ]
        },
        "websites": [
          "http://www.uni-luebeck.de"
        ],
        "places": [
          {
            "place_name": {
              "text": "Lübeck",
              "ref": [
                "https://www.geonames.org/2875601/luebeck.html"
              ]
            }
          }
        ],
        "parents": [],
        "siblings": [],
        "children": []
      }
    ],
    "children": [
      {
        "type": "project",
        "title": "Grasping the World in Ottoman Istanbul: Visual Negotiation and Reading in Practices in Geographic Literature from the Sexteenth Century",
        "uuid": "d1f743f2-7e94-4e00-a8bf-f46e56c7508e"
      },
      {
        "type": "project",
        "title": "Script Styles versus Dialect and Language: A Case for Songhay in Islamic Manuscripts of Timbuktu and Jenne",
        "uuid": "96c7995f-dfc8-489c-baf3-c4347b67c6db"
      },
      {
        "type": "project",
        "title": "Colophons in Sumerian and Akkadian Literary Manuscripts from 3rd and 2nd Millennium BCE Mesopotamia",
        "uuid": "95a2024b-9fea-4ced-8136-1130b0fb8f51.json"
      }
    ],
    "siblings": [
      {
        "type": "project",
        "title": "The Persian Documents from al-Ḥaram al-Šarīf",
        "uuid": "c0d5f0ed-cd33-4224-bcc9-d386f23b6446"
      },
      {
        "type": "project",
        "title": "Beta maṣāḥǝft Manuscripts of Ethiopia and Eritrea",
        "uuid": "169677fd-14f9-46e7-b8f1-2202fb91397c"
      },
      {
        "type": "project",
        "title": "Demarginalizing Medieval Africa: Images, Texts, and Identity in Early Solomonic Ethiopia",
        "uuid": "46121edb-516b-4dbf-ba49-e2c5f07cec2e"
      }
    ],
    "contacts": [
      {
        "pers_name": {
          "text": "Bausi, Alessandro",
          "ref": [
            "https://www.wikidata.org/wiki/Q62559559"
          ]
        },
        "role": 0,
        "websites": [
          "https://www.aai.uni-hamburg.de/afrika/personen/bausi.html"
        ]
      }
    ],
    "research_data": {
      "lang": [
        "ara",
        "eri",
        "eth",
        "per",
        "san"
      ]
    },
    "stack": {},
    "policies": [],
    "keywords": [
      "ara",
      "cluster_of_excellence",
      "eri",
      "eth",
      "mali",
      "manuscripts",
      "per",
      "san"
    ],
    "comment": ""
  }
}