{
  "schema_version": "0.1.3",
  "record_metadata": {
    "uuid": "0a75cf74-9cbe-4ce2-9799-ee16dcc1e88e",
    "record_created": "2022-03-29",
    "record_created_by": "Kudela, Xenia Monika",
    "record_modified": [
      {
        "record_modified_on": "2022-03-31",
        "record_modified_by": "Kudela, Xenia Monika"
      }
    ]
  },
  "project": {
    "title": "Pilotprojekt zur datenbankgestützten Erschließung und digitalen Bereitstellung der neu erworbenen arabischen, persischen und türkischen Handschriften der Universitätsbibliothek Leipzig",
    "abbr": "",
    "type": "project",
    "ref": [],
    "date": [
      {
        "from": "2006-08-01",
        "to": "2008-01-31"
      }
    ],
    "websites": [
      "https://www.ub.uni-leipzig.de/forschungsbibliothek/projekte/projekte-chronologisch-alle/arabische-persische-und-tuerkische-handschriften-pilotprojekt/",
      "https://www.islamic-manuscripts.net/content/index.xml?XSL.lastPage.SESSION=/content/index.xml&lang=de"
    ],
    "project_desc": "In this project 55 Arabic, Persian and Ottoman-Turkish manuscripts, that has been purchased by Leipzig University Library in 1995 and 1996, will be catalogued and digitalized. It is a pioneer project, as it will for the first time integrate Arabic script into a database that also features German and American transliteration systems. The manuscripts contain texts that cover an amazingly broad spectrum, which comprises almost all traditional Islamic fields of knowledge and the main scope of this project to provide scholars of Oriental Studies with access to this hitherto unknown pool of information.",
    "places": [
      {
        "place_name": {
          "text": "Leipzig",
          "ref": [
            "https://www.geonames.org/2879139/leipzig.html"
          ]
        },
        "coordinates": {
          "lat": "51.33962",
          "lng": "12.37129"
        }
      }
    ],
    "lang": [
      "ara",
      "eng",
      "ger"
    ],
    "topic_relations": {
      "nls": true,
      "dh": true,
      "meta": false,
      "rdm": false,
      "infrastructure": false
    },
    "parents": [
      {
        "type": "organisation",
        "org_name": {
          "text": "Universität Leipzig",
          "ref": [
            "https://www.grid.ac/institutes/grid.9647.c"
          ]
        },
        "websites": [
          "https://www.uni-leipzig.de/en/"
        ],
        "places": [
          {
            "place_name": {
              "text": "Leipzig",
              "ref": [
                "https://www.geonames.org/2879139/leipzig.html"
              ]
            }
          }
        ],
        "parents": [],
        "siblings": [],
        "children": []
      }
    ],
    "children": [],
    "siblings": [
      {
        "type": "project",
        "title": "Project for the digitisation and online presentation of Arabic, Persian, and Turkish manuscripts at Leipzig University Library",
        "uuid": "cad00fa7-09a1-4df1-a08b-4ab5b2a48703"
      },
      {
        "type": "project",
        "title": "Datenbankgestützte Erfassung, Erforschung und digitale Präsentation der Familienbibliothek Refaiya",
        "uuid": "38e6dfb4-730a-4a80-8090-4b7ea551b3c7"
      }
    ],
    "contacts": [
      {
        "pers_name": {
          "text": "Verena Klemm-Kuhn",
          "ref": [
            "https://www.wikidata.org/wiki/Q5675690"
          ]
        },
        "role": 0,
        "websites": [
          "https://www.uni-leipzig.de/personenprofil/mitarbeiter/prof-dr-verena-klemm-kuhn"
        ]
      }
    ],
    "research_data": {
      "lang": [
        "ara",
        "per",
        "tur"
      ]
    },
    "stack": {},
    "policies": [],
    "keywords": [
      "ara",
      "catalogue",
      "digital_edition",
      "manuscripts",
      "per",
      "tur"
    ],
    "comment": ""
  }
}