{
  "schema_version": "0.1.3",
  "record_metadata": {
    "uuid": "a4d189e4-f03f-4db0-8742-b777e22da760",
    "record_created": "2022-01-17",
    "record_created_by": "Kudela, Xenia Monika",
    "record_modified": [
      {
        "record_modified_on": "2022-02-18",
        "record_modified_by": "Kudela, Xenia Monika"
      }
    ]
  },
  "project": {
    "title": "Altägyptisches Wörterbuch",
    "abbr": "",
    "type": "project",
    "ref": [],
    "date": [
      {
        "from": "1992",
        "to": "2012"
      }
    ],
    "websites": [
      "https://www.bbaw.de/forschung/altaegyptisches-woerterbuch"
    ],
    "project_desc": "Altägyptisches Wörterbuch is a digital corpus of religious, juristic and administrative texts form ancient Egypt which were originally found in temples, tombs or on papyrus documents and which cover over 3000 years of Egyptian language history. The corpus together with a vast documentation of vocabulary and the ways it was used has been made available by open access and is updated regularly.",
    "places": [
      {
        "place_name": {
          "text": "Berlin",
          "ref": [
            "https://www.geonames.org/2950159/berlin.html"
          ]
        },
        "coordinates": {
          "lat": "52.52437",
          "lng": "13.41053"
        }
      }
    ],
    "lang": [
      "ger"
    ],
    "topic_relations": {
      "nls": true,
      "dh": true,
      "meta": false,
      "rdm": false,
      "infrastructure": false
    },
    "parents": [
      {
        "type": "organisation",
        "org_name": {
          "text": "Zentrum Grundlagenforschung Alte Welt",
          "ref": []
        },
        "websites": [
          "https://www.bbaw.de/forschung/zentren/zentrum-alte-welt"
        ],
        "places": [
          {
            "place_name": {
              "text": "Berlin",
              "ref": [
                "https://www.geonames.org/2950159/berlin.html"
              ]
            }
          }
        ],
        "parents": [
          {
            "type": "organisation",
            "org_name": {
              "text": "Berlin-Brandenburgische Akademie der Wissenschaften",
              "ref": [
                "https://www.grid.ac/institutes/grid.420264.6"
              ]
            },
            "website": [
              "https://www.bbaw.de/"
            ],
            "places": [
              {
                "place_name": {
                  "text": "Berlin",
                  "ref": [
                    "https://www.geonames.org/2950159/berlin.html"
                  ]
                }
              }
            ]
          }
        ],
        "siblings": [],
        "children": []
      }
    ],
    "children": [],
    "siblings": [
      {
        "type": "project",
        "title": "Corpus Coranicum",
        "uuid": "0fd7b9cd-fdae-441b-a6fd-a791d4583ce0"
      },
      {
        "type": "project",
        "title": "Strukturen und Transformationen des Wortschatzes der ägyptischen Sprache: Text- und Wissenskultur im Alten Ägypten",
        "uuid": "85d053c3-4ce6-4130-bc6a-63f96acfb067"
      }
    ],
    "contacts": [
      {
        "pers_name": {
          "text": "Seidlmayer, Stephan Johannes",
          "ref": [
            "https://www.wikidata.org/wiki/Q2343850"
          ]
        },
        "role": 0,
        "websites": [
          "https://www.geschkult.fu-berlin.de/en/e/aegyptologie/institut/mitarbeiter/Professoren-und-Professorinnen/seidlmayer/index.html"
        ]
      }
    ],
    "research_data": {
      "lang": [
        "cop"
      ]
    },
    "stack": {},
    "policies": [],
    "keywords": [
      "ancient_egyptian",
      "celt",
      "cop",
      "digital_dictionary"
    ],
    "comment": ""
  }
}