{
  "schema_version": "0.1.3",
  "record_metadata": {
    "uuid": "a4fa5143-90d2-42ba-a8a1-424b09696b1c",
    "record_created": "2021-11-01",
    "record_created_by": "Kudela, Xenia Monika",
    "record_modified": [
      {
        "record_modified_on": "2021-11-25",
        "record_modified_by": "Kudela, Xenia Monika"
      },
      {
        "record_modified_on": "2022-02-07",
        "record_modified_by": "Kudela, Xenia Monika"
      },
      {
        "record_modified_on": "2022-05-05",
        "record_modified_by": "Kudela, Xenia Monika"
      }
    ]
  },
  "project": {
    "title": "Orient-Digital",
    "abbr": "Orient-Digital is a union catalogue and a portal for oriental manuscripts kept in Germany. It will contain the metadata of Arabic, Persian, and Ottoman-Turkish manuscripts from more than 25 cooperating institutions and will provide links to the digitized manuscripts that are available online.",
    "type": "project",
    "ref": [],
    "date": [
      {
        "from": "2020",
        "to": "2023"
      }
    ],
    "websites": [
      "https://staatsbibliothek-berlin.de/die-staatsbibliothek/abteilungen/orient/projekte/dfg-projekt-orient-digital",
      "http://www.orient-digital.de/content/index.xml"
    ],
    "project_desc": "",
    "places": [
      {
        "place_name": {
          "text": "Berlin",
          "ref": [
            "http://www.geonames.org/2950159/berlin.html"
          ]
        },
        "coordinates": {
          "lat": "52.52437",
          "lng": "13.41053"
        }
      },
      {
        "place_name": {
          "text": "Gotha",
          "ref": [
            "http://www.geonames.org/2918752/gotha.html"
          ]
        },
        "coordinates": {
          "lat": "50.94823",
          "lng": "10.70193"
        }
      },
      {
        "place_name": {
          "text": "Leipzig",
          "ref": [
            "https://www.geonames.org/2879139/leipzig.html"
          ]
        },
        "coordinates": {
          "lat": "51.33962",
          "lng": "12.37129"
        }
      },
      {
        "place_name": {
          "text": "Munich",
          "ref": [
            "http://www.geonames.org/2867714/munich.html"
          ]
        },
        "coordinates": {
          "lat": "48.13743",
          "lng": "11.57549"
        }
      }
    ],
    "lang": [
      "ger"
    ],
    "topic_relations": {
      "nls": true,
      "dh": true,
      "meta": false,
      "rdm": false,
      "infrastructure": true
    },
    "parents": [
      {
        "type": "organisation",
        "org_name": {
          "text": "Staatsbibliothek zu Berlin",
          "ref": [
            "https://www.grid.ac/institutes/grid.461943.d"
          ]
        },
        "websites": [
          "https://staatsbibliothek-berlin.de/"
        ],
        "places": [
          {
            "place_name": {
              "text": "Berlin",
              "ref": [
                "http://www.geonames.org/2950159/berlin.html"
              ]
            }
          }
        ],
        "parents": [],
        "siblings": [],
        "children": []
      },
      {
        "type": "organisation",
        "org_name": {
          "text": "Universität Erfurt",
          "ref": [
            "https://www.grid.ac/institutes/grid.32801.38"
          ]
        },
        "websites": [
          "https://www.uni-erfurt.de/"
        ],
        "places": [
          {
            "place_name": {
              "text": "Erfurt",
              "ref": [
                "https://www.geonames.org/2929670/erfurt.html"
              ]
            }
          }
        ],
        "parents": [],
        "siblings": [],
        "children": []
      },
      {
        "type": "organisation",
        "org_name": {
          "text": "Leipzig University (LU)",
          "ref": [
            "https://www.grid.ac/institutes/grid.9647.c"
          ]
        },
        "websites": [
          "https://www.uni-leipzig.de/"
        ],
        "places": [
          {
            "place_name": {
              "text": "Leipzig",
              "ref": [
                "https://www.geonames.org/2879139/leipzig.html"
              ]
            }
          }
        ],
        "parents": [],
        "siblings": [],
        "children": []
      },
      {
        "type": "organisation",
        "org_name": {
          "text": "Bayerische Staatsbibliothek",
          "ref": [
            "https://www.grid.ac/institutes/grid.432478.e"
          ]
        },
        "websites": [
          "https://www.bsb-muenchen.de/"
        ],
        "places": [
          {
            "place_name": {
              "text": "Munich",
              "ref": [
                "http://www.geonames.org/2867714/munich.html"
              ]
            }
          }
        ],
        "parents": [],
        "siblings": [],
        "children": []
      }
    ],
    "children": [],
    "siblings": [],
    "contacts": [
      {
        "pers_name": {
          "text": "Rauch, Christoph",
          "ref": [
            "https://d-nb.info/gnd/1102171662"
          ]
        },
        "role": 0,
        "websites": [
          "https://staatsbibliothek-berlin.de/die-staatsbibliothek/abteilungen/orient/service-und-benutzung/kontakt"
        ]
      }
    ],
    "research_data": {
      "lang": [
        "ara",
        "per",
        "tur"
      ]
    },
    "stack": {},
    "policies": [],
    "keywords": [
      "ara",
      "databank",
      "digitalization",
      "library",
      "manuscripts",
      "per",
      "tur"
    ],
    "comment": ""
  }
}