{
  "schema_version": "0.1.3",
  "record_metadata": {
    "uuid": "a9ca5d9f-47ab-4704-ad27-9a09e492ca2a",
    "record_created": "2021-11-01",
    "record_created_by": "Kudela, Xenia Monika",
    "record_modified": [
      {
        "record_modified_on": "2022-01-17",
        "record_modified_by": "Kudela, Xenia Monika"
      },
      {
        "record_modified_on": "2022-05_05",
        "record_modified_by": "Kudela, Xenia Monika"
      }
    ]
  },
  "project": {
    "title": "Ptolemaeus Arabus et Latinus",
    "abbr": "PAL",
    "type": "project",
    "ref": [],
    "date": [
      {
        "from": "2013",
        "to": "2037"
      }
    ],
    "websites": [
      "https://ptolemaeus.badw.de/start",
      "https://badw.de/forschungseinrichtung/forschungsvorhaben.html?tx_badwdb_projects%5Baction%5D=show&tx_badwdb_projects%5Bcontroller%5D=Projects&tx_badwdb_projects%5Bproject_id%5D=100&cHash=ffb2790d003b9abde6b3b1c6da4a55b3"
    ],
    "project_desc": "Ptolemaeus Arabus et Latinus (PAL) is a long-term project dedicated to the edition and study of the Arabic and Latin versions of Ptolemy’s astronomical and astrological texts and related material. The manuscripts are being made available in an online database containing catalogues of Arabic and Latin works, their images, searchable transcriptions and a Greek-Arabic-Latin-English glossary of astronomical and astrological terms.",
    "places": [
      {
        "place_name": {
          "text": "Munich",
          "ref": [
            "https://www.geonames.org/2867714/munich.html"
          ]
        },
        "coordinates": {
          "lat": "48.13743",
          "lng": "11.57549"
        }
      },
      {
        "place_name": {
          "text": "Würzburg",
          "ref": [
            "https://www.geonames.org/6556942/wuerzburg.html"
          ]
        },
        "coordinates": {
          "lat": "49.79708",
          "lng": "9.93365"
        }
      }
    ],
    "lang": [
      "eng"
    ],
    "topic_relations": {
      "nls": true,
      "dh": true,
      "meta": false,
      "rdm": false,
      "infrastructure": false
    },
    "parents": [
      {
        "type": "organisation",
        "org_name": {
          "text": "Bayerische Akademie der Wissenschaften ",
          "ref": [
            "https://www.grid.ac/institutes/grid.423977.c"
          ]
        },
        "websites": [
          "https://badw.de/die-akademie.html"
        ],
        "places": [
          {
            "place_name": {
              "text": "Munich",
              "ref": [
                "https://www.geonames.org/2867714/munich.html"
              ]
            }
          }
        ],
        "parents": [],
        "siblings": [],
        "children": []
      },
      {
        "type": "organisation",
        "org_name": {
          "text": "Julius Maximilian University of Würzburg",
          "ref": [
            "https://www.grid.ac/institutes/grid.8379.5"
          ]
        },
        "websites": [
          "https://www.uni-wuerzburg.de/startseite/"
        ],
        "places": [
          {
            "place_name": {
              "text": "Würzburg",
              "ref": [
                "https://www.geonames.org/2805615/wuerzburg.html"
              ]
            }
          }
        ],
        "parents": [],
        "siblings": [],
        "children": []
      }
    ],
    "children": [],
    "siblings": [],
    "contacts": [
      {
        "pers_name": {
          "text": "Hasse, Dag Nikolaus",
          "ref": [
            "https://viaf.org/viaf/5717273/"
          ]
        },
        "role": 0,
        "websites": [
          "https://www.philosophie.uni-wuerzburg.de/institut/allelehrsthlefrphilosophie/profdrdagnikolaushasse/",
          "https://ptolemaeus.badw.de/team/3"
        ]
      }
    ],
    "research_data": {
      "lang": [
        "ara",
        "lat"
      ]
    },
    "stack": {},
    "policies": [],
    "keywords": [
      "ara",
      "lat",
      "manuscripts",
      "manuscripts_catalogue",
      "ptolemy"
    ],
    "comment": ""
  }
}