{
  "schema_version": "0.1.3",
  "record_metadata": {
    "uuid": "c3e206ec-9989-4500-ac20-4126e35871f2",
    "record_created": "2022-02-21",
    "record_created_by": "Kudela, Xenia Monika",
    "record_modified": [
      {
        "record_modified_on": "2022-02-22",
        "record_modified_by": "Kudela, Xenia Monika"
      }
    ]
  },
  "project": {
    "title": "Critical Edition of Ibn Bāğğa’s Commentary on Aristotle’s De generatione et corruptione",
    "abbr": "",
    "type": "project",
    "ref": [],
    "date": [
      {
        "from": "",
        "to": ""
      }
    ],
    "websites": [
      "https://averroes.uni-koeln.de/edition/current-editions/"
    ],
    "project_desc": "This project focuses on Ibn Bāğğa’s Commentary on Aristotle’s “De generatione et corruption” which, eclipsed by the subsequent commentaries of Averroes, received scant attention, even though the importance of Ibn Bāğğa’s influence on the thought of the latter is undeniable. The objective of the project is a critical edition of Ibn Bāğğa’s commentaries, who not only follows Aristotle but also presents different examples and develops ideas of his own.",
    "places": [
      {
        "place_name": {
          "text": "Köln",
          "ref": [
            "https://www.geonames.org/2886242/koeln.html"
          ]
        },
        "coordinates": {
          "lat": "50.93333",
          "lng": "6.95"
        }
      }
    ],
    "lang": [
      "eng"
    ],
    "topic_relations": {
      "nls": true,
      "dh": null,
      "meta": false,
      "rdm": false,
      "infrastructure": false
    },
    "parents": [
      {
        "type": "project",
        "title": "Averroes Edition",
        "uuid": "a6e1fb68-e7a5-4125-8cfc-ec3aa16da73b"
      }
    ],
    "children": [],
    "siblings": [
      {
        "type": "project",
        "title": "Study of Averroes’s Long Commentary on the Physics in Hebrew and Latin Transmission",
        "uuid": "3992a23d-8426-4b73-8b30-844e471e76e2"
      },
      {
        "type": "project",
        "title": "Critical Edition of the Fragmentary Latin Translation of Averroes’s Commentary on De Partibus Animalium and De Generatione Animalium",
        "uuid": "7c7438e6-4172-4059-ad60-54a6d0d61f7c"
      },
      {
        "type": "project",
        "title": "Critical Edition of Ibn Bāǧǧa’s Commentary on Aristotle’s Physics",
        "uuid": "f24e806a-0777-4690-b148-1b35ab3745e2"
      }
    ],
    "contacts": [
      {
        "pers_name": {
          "text": "La Martire, Corrado",
          "ref": [
            "https://d-nb.info/gnd/118137412X"
          ]
        },
        "role": 1,
        "websites": [
          "https://thomasinstitut.uni-koeln.de/index.php?id=11981"
        ]
      }
    ],
    "research_data": {
      "lang": [
        "ara"
      ]
    },
    "stack": {},
    "policies": [],
    "keywords": [
      "ara",
      "aristotele",
      "commentary",
      "critical_edition",
      "ibn_bagga",
      "manuscripts"
    ],
    "comment": ""
  }
}