{
  "schema_version": "0.1.3",
  "record_metadata": {
    "uuid": "6f32aa08-b11d-48f4-8a9d-8f76738dc62e ",
    "record_created": "2021-11-12",
    "record_created_by": "Kudela, Xenia Monika",
    "record_modified": [
      {
        "record_modified_on": "2021-11-22",
        "record_modified_by": "Kudela, Xenia Monika"
      },
      {
        "record_modified_on": "2022-04-04",
        "record_modified_by": "Kudela, Xenia Monika"
      }
    ]
  },
  "project": {
    "title": "Doha Historical Dictionary (معجم الدوحة التأريخي للغة العربية)",
    "abbr": "",
    "type": "project",
    "ref": [],
    "date": [
      {
        "from": "2013-05-23",
        "to": "2028"
      }
    ],
    "websites": [
      "https://dohadictionary.org/"
    ],
    "project_desc": "This project aims to create a historical dictionary of Arabic language. The entries will follow changes in usage and meaning of each word from its first documented record until approximately 200 years AH / 820 AD (first phase of the project).",
    "places": [
      {
        "place_name": {
          "text": "Doha",
          "ref": [
            "https://www.geonames.org/2643743/london.html"
          ]
        },
        "coordinates": {
          "lat": "51.50853",
          "lng": "-0.12574"
        }
      }
    ],
    "lang": [
      "ara"
    ],
    "topic_relations": {
      "nls": true,
      "dh": true,
      "meta": false,
      "rdm": false,
      "infrastructure": false
    },
    "parents": [
      {
        "type": "organisation",
        "org_name": {
          "text": "Arab Center for Research and Policy Studies",
          "ref": [
            "https://www.wikidata.org/wiki/Q12192828"
          ]
        },
        "websites": [
          "https://www.dohainstitute.edu.qa/en/pages/default.aspx"
        ],
        "places": [
          {
            "place_name": {
              "text": "Doha",
              "ref": [
                "https://www.geonames.org/2643743/london.html"
              ]
            }
          }
        ],
        "parents": [],
        "siblings": [],
        "children": []
      },
      {
        "type": "organisation",
        "org_name": {
          "text": "Doha Institute for Graduate Studies",
          "ref": [
            "https://www.wikidata.org/wiki/Q23418976"
          ]
        },
        "websites": [
          "https://www.dohainstitute.org/en/Pages/index.aspx"
        ],
        "places": [
          {
            "place_name": {
              "text": "Doha",
              "ref": [
                "https://www.geonames.org/2643743/london.html"
              ]
            }
          }
        ],
        "parents": [],
        "siblings": [],
        "children": []
      }
    ],
    "children": [],
    "siblings": [],
    "contacts": [
      {
        "pers_name": {
          "text": "Baalbaki, Ramzi",
          "ref": [
            "https://www.wikidata.org/wiki/Q19664932"
          ]
        },
        "role": 0,
        "websites": [
          "https://www.aub.edu.lb/fas/arabic/Pages/Ramzi-Baalbaki-par.aspx"
        ]
      }
    ],
    "research_data": {
      "lang": [
        "ara"
      ]
    },
    "stack": {},
    "policies": [],
    "keywords": [
      "ara",
      "dictionary",
      "historical_dictionary"
    ],
    "comment": ""
  }
}