{
  "schema_version": "0.1.3",
  "record_metadata": {
    "uuid": "880f1d65-b815-4474-9fb4-b17f13bd3765",
    "record_created": "2021-11-01",
    "record_created_by": "Kudela, Xenia Monika",
    "record_modified": [
      {
        "record_modified_on": "2022-01-20",
        "record_modified_by": "Kudela, Xenia Monika"
      },
      {
        "record_modified_on": "2022-05-06",
        "record_modified_by": "Kudela, Xenia Monika"
      }
    ]
  },
  "project": {
    "title": "Streamlining Galen",
    "abbr": "",
    "type": "project",
    "ref": [],
    "date": [
      {
        "from": "2019",
        "to": "2024"
      }
    ],
    "websites": [
      "https://warwick.ac.uk/fac/arts/classics/research/dept_projects/streamlininggalen/"
    ],
    "project_desc": "This project is dedicated to study of influence that Galen´s works had on Islamic medicine after their translation into Arabic between 8th and 10th century. The focus of the research lies on the Arabic summaries of Galen which served as primary learning tools for medical students and doctors. The main output of the project will be a comprehensive survey of Arabic Galenic summaries and a digital corpus of selected texts. Project members will analyze and compare them with each other and with the Galen treatises in Arabic translation that formed the basis of the summaries.",
    "places": [
      {
        "place_name": {
          "text": "Coventry",
          "ref": [
            "https://www.geonames.org/2652221/coventry.html"
          ]
        },
        "coordinates": {
          "lat": "52.40656",
          "lng": "-1.51217"
        }
      }
    ],
    "lang": [
      "eng"
    ],
    "topic_relations": {
      "nls": true,
      "dh": true,
      "meta": false,
      "rdm": false,
      "infrastructure": false
    },
    "parents": [
      {
        "type": "organisation",
        "org_name": {
          "text": "Warwick University",
          "ref": [
            "https://www.grid.ac/institutes/grid.7372.1"
          ]
        },
        "websites": [
          "http://www2.warwick.ac.uk/"
        ],
        "places": [
          {
            "place_name": {
              "text": "Coventry",
              "ref": [
                "https://www.geonames.org/2652221/coventry.html"
              ]
            }
          }
        ],
        "parents": [],
        "siblings": [],
        "children": []
      }
    ],
    "children": [],
    "siblings": [],
    "contacts": [
      {
        "pers_name": {
          "text": "Swain, Simon",
          "ref": [
            "https://www.wikidata.org/wiki/Q55386758"
          ]
        },
        "role": 0,
        "websites": [
          "https://warwick.ac.uk/fac/arts/classics/intranets/staff/simonswain/"
        ]
      },
      {
        "pers_name": {
          "text": "Vagelpohl, Uwe",
          "ref": [
            "https://d-nb.info/gnd/1066384339"
          ]
        },
        "role": 1,
        "websites": [
          "http://www2.warwick.ac.uk/fac/arts/classics/staff/vagelpohl/"
        ]
      }
    ],
    "research_data": {
      "lang": [
        "ara"
      ]
    },
    "stack": {},
    "policies": [],
    "keywords": [
      "ancient_greek_medicine",
      "ara",
      "galen",
      "medicine",
      "medieval_arabic_medicine"
    ],
    "comment": ""
  }
}