{
  "schema_version": "0.1.3",
  "record_metadata": {
    "uuid": "d0a1971a-e11b-442f-ab1a-6d8d421422c5",
    "record_created": "2021-11-12",
    "record_created_by": "Kudela, Xenia Monika",
    "record_modified": [
      {
        "record_modified_on": "2021-11-22",
        "record_modified_by": "Kudela, Xenia Monika"
      }
    ]
  },
  "project": {
    "title": "Handschriftenportal",
    "abbr": "",
    "type": "project",
    "ref": [],
    "date": [
      {
        "from": "2018",
        "to": "2021"
      }
    ],
    "websites": [
      "https://handschriftenportal.de/"
    ],
    "project_desc": "This collaborative project carried out by four Germen libraries (see project - parents) will develop an online platform to provide metadata, descriptive information and images of all manuscripts held at German institutions, as well as a user-friendly workspace for manuscript research. It will enable researchers to access and work on data presented in a standardized and coherent way from one central access point.",
    "places": [
      {
        "place_name": {
          "text": "Berlin",
          "ref": [
            "http://www.geonames.org/2950159/berlin.html"
          ]
        },
        "coordinates": {
          "lat": "52.52437",
          "lng": "13.41053"
        }
      },
      {
        "place_name": {
          "text": "Leipzig",
          "ref": [
            "https://www.geonames.org/2879139/leipzig.html"
          ]
        },
        "coordinates": {
          "lat": "51.33962",
          "lng": "12.37129"
        }
      },
      {
        "place_name": {
          "text": "Munich",
          "ref": [
            "http://www.geonames.org/2867714/munich.html"
          ]
        },
        "coordinates": {
          "lat": "48.13743",
          "lng": "11.57549"
        }
      },
      {
        "place_name": {
          "text": "Wolfenbüttel",
          "ref": [
            "http://www.geonames.org/2806914/wolfenbuettel.html"
          ]
        },
        "coordinates": {
          "lat": "52.16442",
          "lng": "10.54095"
        }
      }
    ],
    "lang": [
      "eng",
      "ger"
    ],
    "topic_relations": {
      "nls": false,
      "dh": true,
      "meta": false,
      "rdm": true,
      "infrastructure": true
    },
    "parents": [
      {
        "type": "organisation",
        "org_name": {
          "text": "Staatsbibliothek zu Berlin – Preußischer Kulturbesitz",
          "ref": [
            "https://www.grid.ac/institutes/grid.461943.d"
          ]
        },
        "websites": [
          "http://staatsbibliothek-berlin.de/"
        ],
        "places": [
          {
            "place_name": {
              "text": "Berlin",
              "ref": [
                "http://www.geonames.org/2950159/berlin.html"
              ]
            }
          }
        ],
        "parents": [],
        "siblings": [],
        "children": []
      },
      {
        "type": "organisation",
        "org_name": {
          "text": "Universitätsbibliothek Leipzig",
          "ref": [
            "https://www.grid.ac/institutes/grid.9647.c"
          ]
        },
        "websites": [
          "https://www.ub.uni-leipzig.de/start/"
        ],
        "places": [
          {
            "place_name": {
              "text": "Leipzig",
              "ref": [
                "https://www.geonames.org/2879139/leipzig.html"
              ]
            }
          }
        ],
        "parents": [],
        "siblings": [],
        "children": []
      },
      {
        "type": "organisation",
        "org_name": {
          "text": "Bayerische Staatsbibliothek München",
          "ref": [
            "https://www.grid.ac/institutes/grid.432478.e"
          ]
        },
        "websites": [
          "https://www.bsb-muenchen.de/"
        ],
        "places": [
          {
            "place_name": {
              "text": "Munich",
              "ref": [
                "http://www.geonames.org/2867714/munich.html"
              ]
            }
          }
        ],
        "parents": [],
        "siblings": [],
        "children": []
      },
      {
        "type": "organisation",
        "org_name": {
          "text": "Herzog August Bibliothek Wolfenbüttel",
          "ref": [
            "https://www.grid.ac/institutes/grid.461604.1"
          ]
        },
        "websites": [
          "http://www.hab.de/"
        ],
        "places": [
          {
            "place_name": {
              "text": "Wolfenbüttel",
              "ref": [
                "http://www.geonames.org/2806914/wolfenbuettel.html"
              ]
            }
          }
        ],
        "parents": [],
        "siblings": [],
        "children": []
      }
    ],
    "children": [],
    "siblings": [],
    "contacts": [
      {
        "pers_name": {
          "text": "Bonte, Achim",
          "ref": [
            "https://d-nb.info/gnd/1023548224"
          ]
        },
        "role": 0,
        "websites": [
          "https://staatsbibliothek-berlin.de/die-staatsbibliothek/abteilungen/generaldirektion/info-gd"
        ]
      }
    ],
    "research_data": {
      "lang": []
    },
    "stack": {},
    "policies": [],
    "keywords": [
      "database",
      "manuscript_research",
      "manuscripts",
      "online_platform",
      "workspace"
    ],
    "comment": "In case of funding extension the second phase of the project should start in 2022"
  }
}