{
  "schema_version": "0.1.6",
  "record_metadata": {
    "uuid": "",
    "record_created": "",
    "record_created_by": "",
    "record_modified": [
      {
        "record_modified_on": "",
        "record_modified_by": ""
      }
    ]
  },
  "project": {
    "title": "",
    "abbr": "",
    "type": "",
    "ref": [
      ""
    ],
    "date": [
      {
        "from": "",
        "to": ""
      }
    ],
    "websites": [
      ""
    ],
    "project_desc": "",
    "places": [
      {
        "place_name": {
          "text": "",
          "ref": [
            ""
          ]
        },
        "coordinates": {
          "lat": "",
          "lng": ""
        }
      }          
    ],
    "lang": [
      ""          
    ],
    "topic_relations": {
      "nls": true,
      "dh": true,
      "meta": true,
      "rdm": true,
      "infrastructure": true
    },
    "relations": [
      {
        "relation_type": "parent",
        "type": "organisation",
        "org_name": {
          "text": "",
          "ref": [
            ""
          ]
        },
        "websites": [
          ""
        ],
        "places":[
          {
            "place_name": {
              "text": "",
              "ref": [
                ""
              ]
            }
          }
        ],
        "relations": []
      },
      {
        "relation_type": "parent",
        "type": "project",
        "title": "",
        "ref": [
          ""
        ],
        "websites": [
          ""
        ],
        "places":[
          {
            "place_name": {
              "text": "",
              "ref": [
                ""
              ]
            }
          }
        ],
        "relations": []
      },
      {
        "relation_type": "parent",
        "type": "project",
        "title": "",
        "uuid": ""
      },
      {
        "relation_type": "parent",
        "type": "organisation",
        "org_name": {
          "text": "",
          "ref": [
              ""
          ]
        },
        "uuid": ""
      }
    ],
    "contacts": [
      {
        "pers_name": {
          "text": "",
          "ref": [
              ""
          ]
        },
        "role": 0,
        "websites": [
          ""
        ]           
      }         
    ],
    "research_data": {
      "lang": [
        ""
      ],
      "publications": {
        "access": {
          "open": 0.0,
          "closed": 100.0,
          "margin": 0.0
        },
        "licensing": [
          ""
        ]
      },
      "data": {
        "raw": {
          "datatypes": [
            {
              "label": "",
              "licensing": [
                ""
              ],
              "access": {
                "open": 0.0,
                "closed": 100.0,
                "margin": 0.0
              }
            }
          ],
          "repositories": [
            {
              "type": "local",
              "accessibility": "restricted",
              "description": "folder-based data storage"
            },
            {
              "type": "remote",
              "accessibility": "open",
              "ref": "",
              "description": "github"
            }
          ]
        },
        "refined": {
        },
        "final": {
        }
      }
    },
    "stack": {
      "database": [
        "sql", "xml", "json", "nosql"
      ],
      "backend": [
        "laravel"
      ],
      "frontend": [
        "vue"
      ],
      "tools": [
        {
          "label": "mallet",
          "self_developed": false,
          "ref": "https://...",
          "purpose": "Zeit schinden"
        }
      ],
      "languages": [
        "php", "javascript", "python"
      ]
    },
    "policies": [
      {
        "type": "",
        "uri": ""
      }
    ],
    "keywords": [
      ""
    ],
    "comment": ""
  }
}
