{
  "schema_version": "0.1.3",
  "record_metadata": {
    "uuid": "173631fa-ddc3-4762-bfd9-5bf40ccef41a",
    "record_created": "2021-10-29",
    "record_created_by": "Mueller-Laackman, Jonas",
    "record_modified": [
      {
        "record_modified_on": "2022-03-25",
        "record_modified_by": "Kudela, Xenia Monika"
      }
    ]
  },
  "project": {
    "title": "Ada Lovelace Center for Digital Humanities",
    "abbr": "ADA",
    "type": "organisation",
    "ref": [],
    "date": [
      {
        "from": "2021",
        "to": ""
      }
    ],
    "websites": [
      "https://www.ada.fu-berlin.de/"
    ],
    "project_desc": "The main objective of Ada Lovelace Center for Digital Humanities is to connect and promote all activities in the Digital Humanities taking place not only at the FU but also at the national and international level. By providing a social and communicative infrastructure for collaboration (co-working hours), developing interdisciplinary lab culture within the humanities (ADA.Labs) and bringing together all projects, teaching and training programs in the Digital Humanities at the FU it enhances and coordinates the transfer of project-based, personal expertise into a sustainable, interdisciplinary knowledge management.",
    "places": [
      {
        "place_name": {
          "text": "Berlin",
          "ref": [
            "https://www.geonames.org/2950159/berlin.html"
          ]
        },
        "coordinates": {
          "lat": "52.52437",
          "lng": "13.41053"
        }
      }
    ],
    "lang": [
      "eng",
      "ger"
    ],
    "topic_relations": {
      "nls": true,
      "dh": true,
      "meta": false,
      "rdm": false,
      "infrastructure": true
    },
    "parents": [
      {
        "type": "organisation",
        "org_name": {
          "text": "FU Berlin",
          "ref": [
            "https://www.geonames.org/8623763/university-library-freie-universitaet-berlin.html"
          ]
        },
        "websites": [
          "https://www.fu-berlin.de/"
        ],
        "places": [
          {
            "place_name": {
              "text": "Berlin",
              "ref": [
                "https://www.geonames.org/2950159/berlin.html"
              ]
            }
          }
        ],
        "parents": [],
        "siblings": [],
        "children": []
      }
    ],
    "children": [],
    "siblings": [],
    "contacts": [
      {
        "pers_name": {
          "text": "Mischke, Dennis",
          "ref": [
            "https://d-nb.info/gnd/1011172860"
          ]
        },
        "role": 0,
        "websites": [
          "https://persoenlichewebsite"
        ]
      }
    ],
    "research_data": {
      "lang": []
    },
    "stack": {},
    "policies": [],
    "keywords": [
      "infrastructure",
      "interdisciplinary_research",
      "networking"
    ],
    "comment": ""
  }
}