{
  "schema_version": "0.1.3",
  "record_metadata": {
    "uuid": "ddbb569b-1542-40fe-9fa7-3842610945c8",
    "record_created": "2021-11-01",
    "record_created_by": "Kudela, Xenia Monika",
    "record_modified": [
      {
        "record_modified_on": "2021-11-25",
        "record_modified_by": "Kudela, Xenia Monika"
      },
      {
        "record_modified_on": "2022-05-05",
        "record_modified_by": "Kudela, Xenia Monika"
      }
    ]
  },
  "project": {
    "title": "Onmasticon Arabicum",
    "abbr": "OA",
    "type": "project",
    "ref": [],
    "date": [
      {
        "from": "1966-08",
        "to": ""
      }
    ],
    "websites": [
      "https://onomasticon.irht.cnrs.fr"
    ],
    "project_desc": "Onomasticon Arabicum (OA) is an Arabic biographical database created in the course of a long-living project reaching back to the 1960s. It contains more than 27000 entries about scholars and celebrities from the first Muslim millenary. Its searching tools are designed to allow the user separate interrogation on any of the different elements of the Arabo-Muslim names, dates and places, reconstructing the identity of a person, trace ways of knowledge transmission and frame historical contexts.",
    "places": [
      {
        "place_name": {
          "text": "Paris",
          "ref": [
            "http://www.geonames.org/2988506/paris.html"
          ]
        },
        "coordinates": {
          "lat": "48.85339",
          "lng": "2.34864"
        }
      }
    ],
    "lang": [
      "ara",
      "eng"
    ],
    "topic_relations": {
      "nls": true,
      "dh": true,
      "meta": false,
      "rdm": false,
      "infrastructure": false
    },
    "parents": [
      {
        "type": "organisation",
        "org_name": {
          "text": "Institut de Recherche et d'Histoire des Textes (IRHT)",
          "ref": [
            "https://www.grid.ac/institutes/grid.450127.5"
          ]
        },
        "websites": [
          "https://www.irht.cnrs.fr/"
        ],
        "places": [
          {
            "place_name": {
              "text": "Paris",
              "ref": [
                "http://www.geonames.org/2988506/paris.html"
              ]
            }
          }
        ],
        "parents": [],
        "siblings": [],
        "children": []
      }
    ],
    "children": [],
    "siblings": [],
    "contacts": [
      {
        "pers_name": {
          "text": "Müller, Christian",
          "ref": []
        },
        "role": 0,
        "websites": [
          "https://www.irht.cnrs.fr/fr/annuaire/muller-christian",
          "https://www.universiteitleiden.nl/en/news/2019/03/meet-our-spring-fellow-christian-muller"
        ]
      },
      {
        "pers_name": {
          "text": "Roiland, Muriel",
          "ref": [
            "https://d-nb.info/gnd/1074308999"
          ]
        },
        "role": 0,
        "websites": [
          "https://www.irht.cnrs.fr/fr/annuaire/roiland-muriel"
        ]
      }
    ],
    "research_data": {
      "lang": [
        "ara"
      ]
    },
    "stack": {},
    "policies": [],
    "keywords": [
      "ara",
      "biographical_database",
      "datebase",
      "daten_friedhof",
      "prosopography"
    ],
    "comment": ""
  }
}