{
  "schema_version": "0.1.5",
  "record_metadata": {
    "uuid": "a0e93701-b975-4760-b3cc-0204f54be3d1",
    "record_created": "2022-06-02",
    "record_created_by": "Kudela, Xenia Monika",
    "record_modified": [
      {
        "record_modified_on": "",
        "record_modified_by": ""
      }
    ]
  },
  "project": {
    "title": "ARCHE",
    "abbr": "",
    "type": "organisation",
    "ref": [],
    "date": [
      {
        "from": "2017",
        "to": ""
      }
    ],
    "websites": [
      "https://arche.acdh.oeaw.ac.at/browser/"
    ],
    "project_desc": "ARCHE is a digital archive designed specifically to preserve digital research data from the humanities created in or related to Austria. It also promotes the use of open access and open data policies.",
    "places": [
      {
        "place_name": {
          "text": "Vienna",
          "ref": [
            "https://www.geonames.org/2761369/vienna.html"
          ]
        },
        "coordinates": {
          "lat": "48.20849",
          "lng": "16.37208"
        }
      }
    ],
    "lang": [],
    "topic_relations": {
      "nls": true,
      "dh": true,
      "meta": true,
      "rdm": true,
      "infrastructure": true
    },
    "parents": [
      {
        "type": "organisation",
        "org_name": {
          "text": "Österreichische Akademie der Wissenschaften",
          "ref": [
            "https://www.grid.ac/institutes/grid.4299.6"
          ]
        },
        "websites": [
          "http://www.oeaw.ac.at/en/austrian-academy-of-sciences/"
        ],
        "places": [
          {
            "place_name": {
              "text": "Vienna",
              "ref": [
                "https://www.geonames.org/2761369/vienna.html"
              ]
            }
          }
        ],
        "parents": [],
        "siblings": [],
        "children": []
      }
    ],
    "children": [],
    "siblings": [],
    "contacts": [
      {
        "pers_name": {
          "text": "Trognitz, Martina",
          "ref": [
            "https://d-nb.info/gnd/116996270X"
          ]
        },
        "role": 1,
        "websites": [
          " https://www.oeaw.ac.at/de/acdh/team/current-team/martina-trognitz/"
        ]
      }
    ],
    "research_data": {
      "lang": [],
      "publications": {
        "access": {
          "open": 0.0,
          "closed": 100.0,
          "margin": 0.0
        },
        "licensing": [
          ""
        ]
      },
      "data": {
        "raw": {
          "datatypes": [
            {
              "label": "",
              "licensing": [
                ""
              ],
              "access": {
                "open": 0.0,
                "closed": 100.0,
                "margin": 0.0
              }
            }
          ],
          "repositories": [
            {
              "type": "local",
              "accessibility": "restricted",
              "description": "folder-based data storage"
            },
            {
              "type": "remote",
              "accessibility": "open",
              "ref": "",
              "description": "github"
            }
          ]
        },
        "refined": {},
        "final": {}
      }
    },
    "stack": {
      "database": [
        "sql",
        "xml",
        "json",
        "nosql"
      ],
      "backend": [
        "laravel"
      ],
      "frontend": [
        "vue"
      ],
      "tools": [
        {
          "label": "mallet",
          "self_developed": false,
          "ref": "https://...",
          "purpose": "Zeit schinden"
        }
      ],
      "languages": [
        "php",
        "javascript",
        "python"
      ]
    },
    "policies": [
      {
        "type": "",
        "uri": ""
      }
    ],
    "keywords": [
      "archive",
      "language_resources",
      "research_infrastructures"
    ],
    "comment": ""
  }
}