{
  "schema_version": "0.1.3",
  "record_metadata": {
    "uuid": "5f3c2fbb-ca17-41c9-acdb-d3e147869400",
    "record_created": "2021-11-01",
    "record_created_by": "Kudela, Xenia Monika",
    "record_modified": [
      {
        "record_modified_on": "2022-01-26",
        "record_modified_by": "Kudela, Xenia Monika"
      },
      {
        "record_modified_on": "2022-05-06",
        "record_modified_by": "Kudela, Xenia Monika"
      }
    ]
  },
  "project": {
    "title": "Communities of Knowledge: Interreligious Networks of Scholars in Ibn Abi Usaybiʿa’s \"History of the Physicians\"",
    "abbr": "",
    "type": "project",
    "ref": [],
    "date": [
      {
        "from": "2018",
        "to": "2021"
      }
    ],
    "websites": [
      "https://usaybia.net/"
    ],
    "project_desc": "This project´s objective is to digitally examine the social encounters of Christian, Muslim, and Jewish scholars in the Abbasid Near East (750–1258) engaged in exchange of medical knowledge as described by Ibn Abi Usaybiʿa (d. 1270), a Muslim physician from Syria in his history of medicine. The project will digitally record these interactions and use network analysis in order to identify the persons most frequently involved in scholar exchange and compare the results with representations from other sources.",
    "places": [
      {
        "place_name": {
          "text": "Munich",
          "ref": [
            "http://www.geonames.org/2867714/munich.html"
          ]
        },
        "coordinates": {
          "lat": "48.13743",
          "lng": "11.57549"
        }
      }
    ],
    "lang": [
      "eng",
      "ger"
    ],
    "topic_relations": {
      "nls": true,
      "dh": true,
      "meta": false,
      "rdm": false,
      "infrastructure": false
    },
    "parents": [
      {
        "type": "organisation",
        "org_name": {
          "text": "Ludwig-Maximilians-Universität in Munich",
          "ref": [
            "https://www.grid.ac/institutes/grid.5252.0"
          ]
        },
        "websites": [
          "https://www.lmu.de/"
        ],
        "places": [
          {
            "place_name": {
              "text": "Munich",
              "ref": [
                "http://www.geonames.org/2867714/munich.html"
              ]
            }
          }
        ],
        "parents": [],
        "siblings": [],
        "children": []
      }
    ],
    "children": [],
    "siblings": [],
    "contacts": [
      {
        "pers_name": {
          "text": "Gibson, Nathan ",
          "ref": [
            "https://id.loc.gov/authorities/names/no2016135689.html"
          ]
        },
        "role": 0,
        "websites": [
          "https://www.naher-osten.uni-muenchen.de/personen/wiss_ma/gibson/index.html"
        ]
      }
    ],
    "research_data": {
      "lang": [
        "ara"
      ]
    },
    "stack": {},
    "policies": [],
    "keywords": [
      "ara",
      "ibn_abi_usaybia",
      "network_analysis"
    ],
    "comment": ""
  }
}