{
  "schema_version": "0.1.3",
  "record_metadata": {
    "uuid": "1c38b421-95a2-4b2b-becf-119f36721a07",
    "record_created": "2021-11-12",
    "record_created_by": "Kudela, Xenia Monika",
    "record_modified": [
      {
        "record_modified_on": "2022-03-25",
        "record_modified_by": "Kudela, Xenia Monika"
      }
    ]
  },
  "project": {
    "title": "Corpus Masoreticum",
    "abbr": "",
    "type": "project",
    "ref": [],
    "date": [
      {
        "from": "2018",
        "to": "2021"
      },
      {
        "from": "2021",
        "to": "2030"
      }
    ],
    "websites": [
      "https://digi.ub.uni-heidelberg.de/de/corpusmasoreticum/index.html"
    ],
    "project_desc": "The long-term project Corups Masoreticum is dedicated to the Masorah of the Hebrew Bible – a corpus of annotations regarding rules of orthography, syntax, vocalization, cantillation etc. of the Biblical Text. This project is the first ever scientific engagement with the Wester European (Ashkenazic) Masorah tradition between the 11th and 13th centuries. The philological work is integrated into a digital work environment BIMA, which was develop for the need of the project, and will result in an openly accessible digital edition of Ashkenazic Masorah.",
    "places": [
      {
        "place_name": {
          "text": "Heidelberg",
          "ref": [
            "https://www.geonames.org/2907911/heidelberg.html"
          ]
        },
        "coordinates": {
          "lat": "49.40768",
          "lng": "8.69079"
        }
      }
    ],
    "lang": [
      "eng",
      "ger"
    ],
    "topic_relations": {
      "nls": true,
      "dh": true,
      "meta": false,
      "rdm": false,
      "infrastructure": false
    },
    "parents": [
      {
        "type": "organisation",
        "org_name": {
          "text": "Hochschule für Jüdische Studien Heidelberg",
          "ref": [
            "https://www.grid.ac/institutes/grid.461653.3"
          ]
        },
        "websites": [
          "http://www.hfjs.eu/"
        ],
        "places": [
          {
            "place_name": {
              "text": "Heidelberg",
              "ref": [
                "https://www.geonames.org/2907911/heidelberg.html"
              ]
            }
          }
        ],
        "parents": [],
        "siblings": [],
        "children": []
      }
    ],
    "children": [],
    "siblings": [],
    "contacts": [
      {
        "pers_name": {
          "text": "Liss, Hanna",
          "ref": [
            "https://d-nb.info/gnd/115755853"
          ]
        },
        "role": 0,
        "websites": [
          "http://www.hfjs.eu/hochschule/dozenten/professoren/hliss.html#AF"
        ]
      }
    ],
    "research_data": {
      "lang": [
        "heb"
      ]
    },
    "stack": {},
    "policies": [],
    "keywords": [
      "bible",
      "digitaledition",
      "heb",
      "manuscripts",
      "masorah"
    ],
    "comment": ""
  }
}